module github.com/joshuaherrera/go-budget

go 1.16

require (
	github.com/gorilla/mux v1.8.0
	github.com/howeyc/fsnotify v0.9.0 // indirect
	github.com/mattn/go-colorable v0.1.8 // indirect
	github.com/pilu/config v0.0.0-20131214182432-3eb99e6c0b9a // indirect
	github.com/pilu/fresh v0.0.0-20190826141211-0fa698148017 // indirect
)
